{
  "type": "service_account",
  "project_id": "skiplitest",
  "private_key_id": "02ae7c5decee6a8b29bf2b4e0463d436113f7133",
  "private_key": "-----BEGIN PRIVATE KEY-----\nMIIEvAIBADANBgkqhkiG9w0BAQEFAASCBKYwggSiAgEAAoIBAQCwZ2Ir0UeSwJkq\n6tbWUroLZwTey9GE8gkw2I2mlyGMkfS66cZns/6do6Tt2DCB5/KwDsOXVqrAuCfv\nE/aUcdQl1OgVyIglVTM597ghR5vkOmgGl7PVBd6f4oS7d+lApCnCFPvHKGnOwfqZ\n22x3WNr1TwFnziuwu7oRtZfuJyHBDAAKxO/c63Gvm7wLmxybsmT00mHk306cyM6u\nACgetnA8AhjlWmcTc6dwsXCLq/nBc69hfeLumm9KWVgOssAv6KPGFsJBMK6FoLAo\nTyjcTp/ZZ1Uu9Lr+ZRscF4gt7LuIETbftjK9MaltlzAAqGaJERhmxlpzooo/6GoT\ntuyuQCthAgMBAAECggEAH2VzHVHc74Ncb31HGfO03aErBn1Xr9YFKT6trWwCIlr6\n6AaCE8R/KW7uBJABCCnwcYHbMXURJIZSQzS2IxMEW2xilzfu9VgN60AJ81BjsFHt\n4FiBPwWRqzq9fYE40FK3hO3HpxlsBYrUT6x0SGSV6emzGhbhg03SLuM3ZIFt+kXc\nWV1BswD8j13zlmJ6HzwoP2sCU84+EJwCpPEER0HjR3U3OYGaCecwyRhsMol1IxiD\nV2zwy4PcQKKFZgcmwUijF/w3KN+mzFDqQLfzhjtgH7xFXAqMo17Ja9l+BJgOjQmI\ng/LUk/fcmlW/3DEi1dYXceneDqjMTv72/m1sxLNjLQKBgQD0qVwNOXeUrw2W9HsN\nB8qymyyVPJNokEUaX0LLs1SfIIZ48G5eIPnztPRmjze0TxiOc1r6rC05e76Uux6E\n3fSHV6MjQmczzOPDJOwWxIJKPIyCqpxKg+j4qq3Tzv8bZbPeWKN72GW0UL26HBPI\n43v/R/sf2phHkZDizXDWrR0hxQKBgQC4lDia6J2iHtkQN2n39St544sEqm9QSHZP\nk1aXzDGlnzjpZLLOXSxT7qFArhI02nGX2oPBndbxAIX9Mfn5QobjEyCQPTneRpiJ\nGEEmr8OirFBEK5TJCbntMhSAjnySPrU2CaWm1pCtDLA9MATyj9nBIKcMmz+8bBwP\n6RIHJK7I7QKBgA3q1GGsMzEyBAPiRF2pY85lJVQX7gq0qjml0ZbkzJuAriWTB7Qz\nDATg9kYfP3vyQ+NWjIZV5PywHVc4jbPhLFfGlHEdBeHcddhT8VoaM48lgpisO9fB\nSS9cBidWTwyv7Ftpj2MsHBz1utUrY7S5vAP5hD97n83yadt89D5B+rZBAoGAJ5zf\n3RcJJY77RMivvGBomTslTbYKN6+lfISBdAiFqybVvvk2iqViawzunIP/MkqjUFS8\nLCRkycoz91fvbvhBHKCxP2N0dOivudRzvwq/sLzMaST1RIQK3AYAcmqh/3znxRYi\n8ABiglETzb3tgeUvdYw9ba4v6o9FIoEBtni/7i0CgYB859oXgutj+4HECoY/0/xc\nnE/m8IzohJNRiQ98HkjTX212Hqk6MgHfgg9j7Y+I9HqZ/xtU1FZpRftJ6aYnN9On\nrKjswoQ4xGMfpBXWxnpBk3P/WbXbbZ6ceigOykkLV1sNSUTC7pR+RqpET/rew4/i\nU4N641NOjhslAUPaRsmTDA==\n-----END PRIVATE KEY-----\n",
  "client_email": "firebase-adminsdk-1j2qg@skiplitest.iam.gserviceaccount.com",
  "client_id": "108951549092773953852",
  "database_url": "https://skiplitest-default-rtdb.asia-southeast1.firebasedatabase.app",
  "auth_uri": "https://accounts.google.com/o/oauth2/auth",
  "token_uri": "https://oauth2.googleapis.com/token",
  "auth_provider_x509_cert_url": "https://www.googleapis.com/oauth2/v1/certs",
  "client_x509_cert_url": "https://www.googleapis.com/robot/v1/metadata/x509/firebase-adminsdk-1j2qg%40skiplitest.iam.gserviceaccount.com"
}
